<svg width="32" height="33" viewBox="0 0 32 33" fill="none" xmlns="http://www.w3.org/2000/svg">
<path fill-rule="evenodd" clip-rule="evenodd" d="M16 26L7 17L7.00229 16.9977L7.00897 16.991C7.41607 16.5839 7.81327 16.1867 8.20105 15.7992L1.5 15C3.06728 13.3333 11 9 14.6009 9.5C21.774 2.66832 24.939 1.00013 31.5 1C31.5 9.07803 30.1387 11.7108 23.5 18.5062C23.9 24.1112 20 29.5041 18 31.5L17 25.0018C16.6738 25.3268 16.3405 25.6595 16 26ZM25.5 11C27.433 11 29 9.433 29 7.5C29 5.567 27.433 4 25.5 4C23.567 4 22 5.567 22 7.5C22 9.433 23.567 11 25.5 11ZM22 13.5C22 14.8807 20.8807 16 19.5 16C18.1193 16 17 14.8807 17 13.5C17 12.1193 18.1193 11 19.5 11C20.8807 11 22 12.1193 22 13.5ZM14.5 20C15.3284 20 16 19.3284 16 18.5C16 17.6716 15.3284 17 14.5 17C13.6716 17 13 17.6716 13 18.5C13 19.3284 13.6716 20 14.5 20Z" fill="white"/>
<path d="M7 17L6.64634 16.6466L6.293 17.0001L6.64645 17.3536L7 17ZM16 26L15.6464 26.3536L16 26.7071L16.3536 26.3536L16 26ZM7.00229 16.9977L6.64875 16.6441L6.64862 16.6443L7.00229 16.9977ZM7.00897 16.991L7.36251 17.3446L7.36252 17.3446L7.00897 16.991ZM8.20105 15.7992L8.55448 16.1529L9.28312 15.4247L8.26026 15.3027L8.20105 15.7992ZM1.5 15L1.13575 14.6575L0.457103 15.3792L1.44079 15.4965L1.5 15ZM14.6009 9.5L14.5322 9.99525L14.7711 10.0284L14.9457 9.86207L14.6009 9.5ZM31.5 1H32V0.49999L31.5 0.5L31.5 1ZM23.5 18.5062L23.1423 18.1568L22.9853 18.3176L23.0013 18.5418L23.5 18.5062ZM18 31.5L17.5058 31.576L17.6557 32.55L18.3532 31.8539L18 31.5ZM17 25.0018L17.4942 24.9257L17.3444 23.9526L16.6471 24.6476L17 25.0018ZM7.00229 16.9977L6.64875 16.6441L6.64862 16.6443L7.00229 16.9977ZM6.64645 17.3536L15.6464 26.3536L16.3536 25.6464L7.35355 16.6464L6.64645 17.3536ZM6.64862 16.6443L6.64634 16.6466L7.35366 17.3534L7.35595 17.3512L6.64862 16.6443ZM6.65543 16.6375L6.64875 16.6441L7.35583 17.3513L7.36251 17.3446L6.65543 16.6375ZM7.84761 15.4455C7.45976 15.8331 7.0625 16.2304 6.65542 16.6375L7.36252 17.3446C7.76963 16.9375 8.16677 16.5403 8.55448 16.1529L7.84761 15.4455ZM1.44079 15.4965L8.14183 16.2957L8.26026 15.3027L1.55921 14.5035L1.44079 15.4965ZM14.6697 9.00475C13.6657 8.86534 12.4143 9.06509 11.1186 9.43308C9.81082 9.80449 8.40679 10.3624 7.07609 10.9846C5.74436 11.6071 4.47597 12.2987 3.43831 12.9423C2.41339 13.5779 1.57548 14.1899 1.13575 14.6575L1.86425 15.3425C2.20816 14.9768 2.94957 14.4221 3.96536 13.7921C4.96841 13.17 6.20212 12.497 7.4996 11.8904C8.7981 11.2834 10.1504 10.7476 11.3918 10.395C12.6451 10.0391 13.7357 9.88466 14.5322 9.99525L14.6697 9.00475ZM31.5 0.5C28.1702 0.500068 25.6541 0.924449 23.054 2.24217C20.4754 3.54897 17.8457 5.71923 14.2561 9.13793L14.9457 9.86207C18.5293 6.44909 21.0686 4.36941 23.506 3.13417C25.9219 1.90985 28.2688 1.50007 31.5 1.5L31.5 0.5ZM23.8577 18.8556C27.177 15.4579 29.2331 13.0474 30.4429 10.4448C31.6594 7.82784 32 5.06235 32 1H31C31 5.01569 30.6599 7.60558 29.5361 10.0233C28.4056 12.4555 26.4617 14.7591 23.1423 18.1568L23.8577 18.8556ZM18.3532 31.8539C19.3888 30.8205 20.8954 28.931 22.0952 26.5841C23.2942 24.2388 24.2075 21.396 23.9987 18.4706L23.0013 18.5418C23.1925 21.2214 22.3558 23.8775 21.2048 26.1289C20.0546 28.3788 18.6112 30.1837 17.6468 31.1461L18.3532 31.8539ZM16.5058 25.0778L17.5058 31.576L18.4942 31.424L17.4942 24.9257L16.5058 25.0778ZM16.3536 26.3536C16.6939 26.0132 17.0269 25.6808 17.3529 25.3559L16.6471 24.6476C16.3207 24.9729 15.9872 25.3057 15.6464 25.6464L16.3536 26.3536ZM28.5 7.5C28.5 9.15685 27.1569 10.5 25.5 10.5V11.5C27.7091 11.5 29.5 9.70914 29.5 7.5H28.5ZM25.5 4.5C27.1569 4.5 28.5 5.84315 28.5 7.5H29.5C29.5 5.29086 27.7091 3.5 25.5 3.5V4.5ZM22.5 7.5C22.5 5.84315 23.8431 4.5 25.5 4.5V3.5C23.2909 3.5 21.5 5.29086 21.5 7.5H22.5ZM25.5 10.5C23.8431 10.5 22.5 9.15685 22.5 7.5H21.5C21.5 9.70914 23.2909 11.5 25.5 11.5V10.5ZM19.5 16.5C21.1569 16.5 22.5 15.1569 22.5 13.5H21.5C21.5 14.6046 20.6046 15.5 19.5 15.5V16.5ZM16.5 13.5C16.5 15.1569 17.8431 16.5 19.5 16.5V15.5C18.3954 15.5 17.5 14.6046 17.5 13.5H16.5ZM19.5 10.5C17.8431 10.5 16.5 11.8431 16.5 13.5H17.5C17.5 12.3954 18.3954 11.5 19.5 11.5V10.5ZM22.5 13.5C22.5 11.8431 21.1569 10.5 19.5 10.5V11.5C20.6046 11.5 21.5 12.3954 21.5 13.5H22.5ZM15.5 18.5C15.5 19.0523 15.0523 19.5 14.5 19.5V20.5C15.6046 20.5 16.5 19.6046 16.5 18.5H15.5ZM14.5 17.5C15.0523 17.5 15.5 17.9477 15.5 18.5H16.5C16.5 17.3954 15.6046 16.5 14.5 16.5V17.5ZM13.5 18.5C13.5 17.9477 13.9477 17.5 14.5 17.5V16.5C13.3954 16.5 12.5 17.3954 12.5 18.5H13.5ZM14.5 19.5C13.9477 19.5 13.5 19.0523 13.5 18.5H12.5C12.5 19.6046 13.3954 20.5 14.5 20.5V19.5ZM7.35583 17.3513L7.36251 17.3446L6.65543 16.6375L6.64875 16.6441L7.35583 17.3513ZM6.64862 16.6443L6.64634 16.6466L7.35366 17.3534L7.35595 17.3512L6.64862 16.6443Z" fill="white"/>
<path d="M9.5 23.5C6 20.5 1.5 22.4996 0 32.9997C6.5 32.9997 13.5 28.4997 9.5 23.5Z" fill="#625EE3"/>
</svg>
