<svg width="21" height="21" viewBox="0 0 21 21" fill="none" xmlns="http://www.w3.org/2000/svg">
<path d="M15.1667 0H2.33333C1.05 0 0 1.05 0 2.33333V18.6667C0 19.95 1.05 21 2.33333 21H18.6667C19.95 21 21 19.95 21 18.6667V5.83333L15.1667 0ZM4.66667 4.66667H10.5V7H4.66667V4.66667ZM16.3333 16.3333H4.66667V14H16.3333V16.3333ZM16.3333 11.6667H4.66667V9.33333H16.3333V11.6667ZM14 7V2.33333L18.6667 7H14Z" fill="white"/>
</svg>
