<svg width="69" height="61" viewBox="0 0 69 61" fill="none" xmlns="http://www.w3.org/2000/svg">
<path d="M40.5852 44.9274V58.0548C40.5852 58.9301 41.2948 59.6396 42.1701 59.6396V59.6396C44.971 59.6396 47.2415 57.3691 47.2415 54.5682V46.0654C47.2415 40.4428 42.6835 35.8848 37.0609 35.8848H31.0527C25.4301 35.8848 20.8721 40.4428 20.8721 46.0654V54.9581C20.8721 57.5436 22.9681 59.6396 25.5536 59.6396V59.6396C26.3616 59.6396 27.0166 58.9846 27.0166 58.1766V44.9274M31.2301 59.6396H34.4303H37.6304" stroke="#53D3D1"/>
<circle cx="34.0572" cy="28.1129" r="5.50154" stroke="#53D3D1"/>
<circle cx="14.5787" cy="31.6539" r="5.50154" stroke="#53D3D1"/>
<circle cx="54.4195" cy="31.6539" r="5.50154" stroke="#53D3D1"/>
<path fill-rule="evenodd" clip-rule="evenodd" d="M22.4131 40.6131C21.4109 40.1712 20.3026 39.9258 19.1369 39.9258H10.0216C5.53314 39.9258 1.89453 43.5644 1.89453 48.0528V54.874C1.89453 57.1834 3.76668 59.0556 6.07608 59.0556C6.60792 59.0556 7.03907 58.6244 7.03907 58.0926V47.0885H8.03907V58.0926C8.03907 58.4425 7.9475 58.7711 7.78703 59.0556H14.9527H18.1529V60.0556H14.9527H6.18345V60.0527C6.1479 60.0546 6.11211 60.0556 6.07608 60.0556C3.21439 60.0556 0.894531 57.7357 0.894531 54.874V48.0528C0.894531 43.0121 4.98085 38.9258 10.0216 38.9258H19.1369C20.5313 38.9258 21.8527 39.2385 23.0347 39.7975C22.8251 40.0728 22.6076 40.3583 22.4131 40.6131Z" fill="#53D3D1"/>
<path fill-rule="evenodd" clip-rule="evenodd" d="M45.9318 40.9376C47.0965 40.2928 48.4364 39.9258 49.862 39.9258H58.9773C63.4658 39.9258 67.1044 43.5644 67.1044 48.0528V54.4841C67.1044 57.0089 65.0577 59.0556 62.5329 59.0556C61.9338 59.0556 61.4481 58.5699 61.4481 57.9707V47.0885H60.4481V57.9707C60.4481 58.3681 60.5593 58.7395 60.7522 59.0556H54.7931H51.593V60.0556H54.7931H62.3314V60.046C62.3977 60.0523 62.4649 60.0556 62.5329 60.0556C65.61 60.0556 68.1044 57.5612 68.1044 54.4841V48.0528C68.1044 43.0121 64.0181 38.9258 58.9773 38.9258H49.862C48.0946 38.9258 46.4446 39.4281 45.0469 40.2978C45.4221 40.4222 45.7356 40.6324 45.9318 40.9376Z" fill="#53D3D1"/>
<path fill-rule="evenodd" clip-rule="evenodd" d="M62.5622 29.7665L60.9754 30.7674V29.5851L61.5939 29.195C61.654 27.9441 61.6199 26.6905 61.4918 25.4447L55.8829 22.3485L55.8805 22.3471C55.1878 21.9623 54.6597 21.3382 54.3945 20.5923C54.0752 19.8144 53.7083 18.9973 53.339 18.2418C52.9578 17.548 52.8422 16.7387 53.0148 15.9653L53.0154 15.9626L54.4268 9.71813C53.5739 8.79935 52.6589 7.94024 51.6883 7.14686L45.5659 8.91641L45.5604 8.91799C44.7872 9.13666 43.9611 9.06954 43.2335 8.72896C42.4613 8.37261 41.6654 8.07 40.8515 7.82329C40.0814 7.59436 39.4194 7.09571 38.9869 6.41857L38.9838 6.41375L35.5837 1.0235C34.3312 0.97157 33.0765 1.00573 31.8286 1.12574L28.7347 6.73051L28.7334 6.73293C28.348 7.42645 27.7228 7.95507 26.9756 8.21994C26.3244 8.48357 25 9.10894 24.5567 9.33835L24.529 9.35267L24.5005 9.36524C23.8345 9.65889 23.0947 9.74236 22.3799 9.6045L22.3643 9.60149L22.3489 9.59799L16.1043 8.18656C15.1856 9.03946 14.3265 9.95446 13.5331 10.9251L15.3026 17.0475L15.3042 17.053C15.5229 17.8263 15.4557 18.6524 15.1151 19.3801C14.7588 20.1522 14.4563 20.9479 14.2096 21.7616C13.9807 22.5318 13.482 23.1939 12.8048 23.6265L12.8 23.6296L7.40574 27.0322C7.3456 28.2831 7.37972 29.5367 7.50783 30.7825L7.87768 30.9866V32.1289L6.57229 31.4083C6.36977 29.7671 6.3246 28.1104 6.43737 26.4607L12.2665 22.7838C12.7417 22.4802 13.0915 22.0153 13.2517 21.4746C13.5122 20.6147 13.8319 19.7739 14.2084 18.9582C14.448 18.4477 14.4954 17.8679 14.3419 17.3252L12.4283 10.7043C13.4504 9.40525 14.5841 8.19797 15.8163 7.09624L22.5693 8.6226C23.0843 8.72192 23.6172 8.66179 24.0971 8.45022C24.566 8.20757 25.9433 7.55701 26.6232 7.28381C27.1489 7.10251 27.5891 6.73334 27.8592 6.24723L31.2051 0.186074C32.8472 -0.00290333 34.5027 -0.0480491 36.1527 0.0511527L39.8296 5.88023C40.1332 6.35549 40.598 6.7053 41.1388 6.86543C41.9987 7.12594 42.8395 7.44563 43.6552 7.82222C44.1657 8.06181 44.7455 8.10922 45.2882 7.95573L51.9091 6.04212C53.2081 7.06422 54.4154 8.19786 55.5171 9.43012L53.9908 16.1831C53.8697 16.7259 53.9534 17.2942 54.2259 17.779C54.6125 18.5685 54.9964 19.4235 55.3296 20.237C55.5109 20.7627 55.88 21.2029 56.3662 21.473L62.4273 24.8189C62.6298 26.46 62.675 28.1167 62.5622 29.7665ZM50.6246 25.1189H51.6407C51.3938 23.7055 50.971 22.3167 50.3734 20.9857C48.9636 17.8462 46.6545 15.1953 43.7382 13.3681C40.8218 11.5409 37.4291 10.6196 33.9891 10.7206C30.5491 10.8216 27.2163 11.9405 24.4121 13.9356C21.608 15.9308 19.4585 18.7126 18.2354 21.9294C17.8407 22.9673 17.5483 24.0354 17.359 25.1189H18.3751C18.5538 24.1567 18.819 23.2081 19.1701 22.2848C20.3229 19.2529 22.3489 16.6309 24.9919 14.7504C27.6349 12.8699 30.7761 11.8154 34.0184 11.7202C37.2607 11.625 40.4585 12.4934 43.2072 14.2155C45.956 15.9377 48.1324 18.4363 49.4611 21.3954C50.0002 22.5958 50.3882 23.8461 50.6246 25.1189Z" fill="#9334B8"/>
</svg>
