<svg width="60" height="59" viewBox="0 0 60 59" fill="none" xmlns="http://www.w3.org/2000/svg">
<path d="M0.13714 40.0117C0.13714 41.4845 1.33105 42.6784 2.80381 42.6784C4.27657 42.6784 5.47047 41.4845 5.47047 40.0117C5.47047 38.539 4.27657 37.3451 2.80381 37.3451C1.33105 37.3451 0.13714 38.539 0.13714 40.0117ZM54.9512 0.755827L52.0644 3.64258L54.9512 6.52933L57.8379 3.64258L54.9512 0.755827ZM2.80381 40.5117H42.1967V39.5117H2.80381V40.5117ZM42.1967 29.98H19.8207V30.98H42.1967V29.98ZM19.8207 20.6959H46.9512V19.6959H19.8207V20.6959ZM55.4512 12.1959V3.64258H54.4512V12.1959H55.4512ZM46.9512 20.6959C51.6456 20.6959 55.4512 16.8903 55.4512 12.1959H54.4512C54.4512 16.338 51.0933 19.6959 46.9512 19.6959V20.6959ZM15.1787 25.338C15.1787 22.7742 17.257 20.6959 19.8207 20.6959V19.6959C16.7047 19.6959 14.1787 22.2219 14.1787 25.338H15.1787ZM19.8207 29.98C17.257 29.98 15.1787 27.9017 15.1787 25.338H14.1787C14.1787 28.454 16.7047 30.98 19.8207 30.98V29.98ZM47.4625 35.2459C47.4625 32.3376 45.1049 29.98 42.1967 29.98V30.98C44.5527 30.98 46.4625 32.8899 46.4625 35.2459H47.4625ZM42.1967 40.5117C45.1049 40.5117 47.4625 38.1541 47.4625 35.2459H46.4625C46.4625 37.6018 44.5527 39.5117 42.1967 39.5117V40.5117Z" fill="#9334B8"/>
<path d="M45.4307 40.7188L48.6408 43.929L52.2045 47.4927L56.965 52.2531C58.077 53.3651 58.077 55.168 56.965 56.28C55.853 57.392 54.0501 57.392 52.9381 56.28L41.4038 44.7457L45.4307 40.7188Z" stroke="#53D3D1"/>
<circle cx="30.1804" cy="29.4949" r="17.9949" stroke="#53D3D1"/>
<circle cx="30.1804" cy="29.4949" r="17.9949" stroke="#53D3D1"/>
<circle cx="30.1801" cy="29.4955" r="14.472" stroke="#53D3D1"/>
</svg>
