<svg width="47" height="49" viewBox="0 0 47 49" fill="none" xmlns="http://www.w3.org/2000/svg">
<path d="M23.6879 13.1895L12.6953 28.2127C14.7717 31.0219 18.7779 37.2999 18.1916 39.9381H29.1842C28.5979 37.2999 32.6041 31.0219 34.6805 28.2127L23.6879 13.1895ZM23.6879 13.1895V25.2813" stroke="#54D3D1"/>
<circle cx="23.6896" cy="28.5783" r="3.1642" stroke="#54D3D1"/>
<path d="M32.3627 47.6335C31.665 43.4743 33.5832 40.3051 23.6903 40.3051C13.7973 40.3051 15.7155 43.4743 15.0178 47.6335H14.2754C14.9804 43.0678 13.7973 39.5708 23.6903 39.5723C33.584 39.5723 32.4001 43.0678 33.1051 47.6335H32.3627Z" fill="#54D3D1"/>
<path d="M14.2695 48H33.1058" stroke="#54D3D1"/>
<circle cx="7.93178" cy="21.9845" r="3.1642" stroke="#9334B8"/>
<circle cx="23.6867" cy="3.6642" r="3.1642" stroke="#9334B8"/>
<path fill-rule="evenodd" clip-rule="evenodd" d="M27.34 4.00773C27.3504 3.89523 27.3557 3.78126 27.3557 3.66605C27.3557 3.52806 27.3481 3.39184 27.3333 3.25781C34.4341 4.69104 39.882 10.6866 40.4863 18.054C40.513 18.3792 40.5302 18.7071 40.5378 19.0373L40.5381 19.054H39.8051C39.636 11.6425 34.349 5.49508 27.34 4.00773ZM20.0623 4.17426C13.4062 5.91179 8.46481 11.8928 8.30138 19.054H7.56836L7.56873 19.0373C7.57626 18.7071 7.5935 18.3792 7.62018 18.054C8.20343 10.944 13.2976 5.11166 20.0352 3.42461C20.03 3.50442 20.0273 3.58493 20.0273 3.66605C20.0273 3.83849 20.0393 4.00816 20.0623 4.17426Z" fill="#9334B8"/>
<circle cx="40.1759" cy="21.9845" r="3.1642" stroke="#9334B8"/>
<path d="M26.9844 3.66406L40.1755 3.66406" stroke="#9334B8"/>
<path d="M7.19922 3.66602L20.3903 3.66602" stroke="#9334B8"/>
<rect x="1.4707" y="1.23242" width="5.59555" height="5.59555" stroke="#9334B8"/>
<rect x="40.3105" y="1.23242" width="5.59555" height="5.59555" stroke="#9334B8"/>
</svg>
