<svg width="35" height="34" viewBox="0 0 35 34" fill="none" xmlns="http://www.w3.org/2000/svg">
<path d="M13.2297 12.2C13.6059 11.1307 14.3484 10.229 15.3257 9.65461C16.303 9.08025 17.452 8.8703 18.5692 9.06194C19.6865 9.25358 20.6998 9.83444 21.4299 10.7016C22.1599 11.5689 22.5594 12.6664 22.5577 13.8C22.5577 17 17.7577 18.6 17.7577 18.6M17.8857 25H17.9017M33.8857 17C33.8857 25.8366 26.7223 33 17.8857 33C9.04919 33 1.88574 25.8366 1.88574 17C1.88574 8.16344 9.04919 1 17.8857 1C26.7223 1 33.8857 8.16344 33.8857 17Z" stroke="black" stroke-width="2" stroke-linecap="round" stroke-linejoin="round"/>
</svg>
