<svg width="14" height="14" viewBox="0 0 14 14" fill="none" xmlns="http://www.w3.org/2000/svg">
<path d="M1 7.2085H13M13 7.2085L7 1.2085M13 7.2085L7 13.2085" stroke="white" stroke-linecap="round" stroke-linejoin="round"/>
</svg>
