<svg width="41" height="40" viewBox="0 0 41 40" fill="none" xmlns="http://www.w3.org/2000/svg">
<g filter="url(#filter0_b_1374_3)">
<circle cx="20.0605" cy="20" r="19.5" stroke="url(#paint0_linear_1374_3)"/>
</g>
<path d="M30.0605 14C30.0605 12.9 29.1605 12 28.0605 12H12.0605C10.9605 12 10.0605 12.9 10.0605 14M30.0605 14V26C30.0605 27.1 29.1605 28 28.0605 28H12.0605C10.9605 28 10.0605 27.1 10.0605 26V14M30.0605 14L20.0605 21L10.0605 14" stroke="#53D3D1" stroke-linecap="round" stroke-linejoin="round"/>
<defs>
<filter id="filter0_b_1374_3" x="-29.9395" y="-30" width="100" height="100" filterUnits="userSpaceOnUse" color-interpolation-filters="sRGB">
<feFlood flood-opacity="0" result="BackgroundImageFix"/>
<feGaussianBlur in="BackgroundImage" stdDeviation="15"/>
<feComposite in2="SourceAlpha" operator="in" result="effect1_backgroundBlur_1374_3"/>
<feBlend mode="normal" in="SourceGraphic" in2="effect1_backgroundBlur_1374_3" result="shape"/>
</filter>
<linearGradient id="paint0_linear_1374_3" x1="-0.575817" y1="48.4375" x2="47.9892" y2="42.1263" gradientUnits="userSpaceOnUse">
<stop stop-color="#53D3D1"/>
<stop offset="0.489583" stop-color="#9334B8"/>
<stop offset="1" stop-color="#4C6FB2"/>
</linearGradient>
</defs>
</svg>
