<svg width="362" height="135" viewBox="0 0 362 135" fill="none" xmlns="http://www.w3.org/2000/svg">
<g filter="url(#filter0_d_136_735)">
<rect x="16" y="21" width="316" height="75" rx="6" fill="#F7F8F7"/>
<rect x="16" y="90" width="316" height="6" fill="#DEDEE3"/>
<rect x="16" y="90" width="316" height="6" fill="#625EE3"/>
<path d="M85.3665 44.8182L88.0163 52.8324H88.1207L90.7656 44.8182H92.794L89.2045 55H86.9276L83.343 44.8182H85.3665ZM94.0556 55V47.3636H95.8553V55H94.0556ZM94.9604 46.2798C94.6754 46.2798 94.4301 46.1854 94.2246 45.9964C94.0191 45.8042 93.9164 45.5739 93.9164 45.3054C93.9164 45.0336 94.0191 44.8033 94.2246 44.6143C94.4301 44.4221 94.6754 44.326 94.9604 44.326C95.2488 44.326 95.494 44.4221 95.6962 44.6143C95.9017 44.8033 96.0044 45.0336 96.0044 45.3054C96.0044 45.5739 95.9017 45.8042 95.6962 45.9964C95.494 46.1854 95.2488 46.2798 94.9604 46.2798ZM103.741 49.3821L102.101 49.5611C102.054 49.3954 101.973 49.2396 101.857 49.0938C101.745 48.9479 101.592 48.8303 101.4 48.7408C101.208 48.6513 100.972 48.6065 100.694 48.6065C100.319 48.6065 100.004 48.6877 99.7493 48.8501C99.4974 49.0125 99.3731 49.223 99.3764 49.4815C99.3731 49.7036 99.4543 49.8842 99.62 50.0234C99.7891 50.1626 100.067 50.277 100.455 50.3665L101.758 50.6449C102.48 50.8007 103.017 51.0476 103.369 51.3857C103.723 51.7237 103.902 52.1662 103.906 52.7131C103.902 53.1937 103.761 53.6179 103.483 53.9858C103.208 54.3504 102.825 54.6354 102.335 54.8409C101.844 55.0464 101.281 55.1491 100.644 55.1491C99.7095 55.1491 98.9571 54.9536 98.3871 54.5625C97.817 54.1681 97.4773 53.6196 97.3679 52.9169L99.1229 52.7479C99.2024 53.0926 99.3714 53.3527 99.63 53.5284C99.8885 53.7041 100.225 53.7919 100.639 53.7919C101.067 53.7919 101.41 53.7041 101.668 53.5284C101.93 53.3527 102.061 53.1357 102.061 52.8771C102.061 52.6584 101.977 52.4777 101.808 52.3352C101.642 52.1927 101.383 52.0833 101.032 52.0071L99.7294 51.7337C98.9969 51.5812 98.455 51.3243 98.1037 50.9631C97.7524 50.5985 97.5784 50.1378 97.5817 49.581C97.5784 49.1103 97.706 48.7027 97.9645 48.358C98.2263 48.0099 98.5893 47.7415 99.0533 47.5526C99.5206 47.3603 100.059 47.2642 100.669 47.2642C101.564 47.2642 102.268 47.4548 102.782 47.8359C103.299 48.2171 103.619 48.7325 103.741 49.3821ZM107.587 55.1541C107.103 55.1541 106.667 55.0679 106.279 54.8956C105.895 54.7199 105.59 54.4614 105.365 54.12C105.143 53.7786 105.032 53.3577 105.032 52.8572C105.032 52.4264 105.111 52.0701 105.27 51.7884C105.429 51.5066 105.646 51.2812 105.922 51.1122C106.197 50.9432 106.507 50.8156 106.851 50.7294C107.199 50.6399 107.559 50.5753 107.93 50.5355C108.377 50.4891 108.74 50.4477 109.019 50.4112C109.297 50.3714 109.499 50.3118 109.625 50.2322C109.755 50.1494 109.819 50.0218 109.819 49.8494V49.8196C109.819 49.4451 109.708 49.1551 109.486 48.9496C109.264 48.7441 108.944 48.6413 108.527 48.6413C108.086 48.6413 107.736 48.7375 107.478 48.9297C107.222 49.1219 107.05 49.349 106.961 49.6108L105.28 49.3722C105.413 48.9081 105.632 48.5204 105.936 48.2088C106.241 47.8939 106.614 47.6586 107.055 47.5028C107.496 47.3438 107.983 47.2642 108.517 47.2642C108.885 47.2642 109.251 47.3073 109.615 47.3935C109.98 47.4796 110.313 47.6222 110.615 47.821C110.916 48.0166 111.158 48.2834 111.341 48.6214C111.526 48.9595 111.619 49.3821 111.619 49.8892V55H109.889V53.951H109.829C109.72 54.1631 109.566 54.362 109.367 54.5476C109.171 54.7299 108.924 54.8774 108.626 54.9901C108.331 55.0994 107.985 55.1541 107.587 55.1541ZM108.054 53.8317C108.416 53.8317 108.729 53.7604 108.994 53.6179C109.259 53.4721 109.463 53.2798 109.605 53.0412C109.751 52.8026 109.824 52.5424 109.824 52.2607V51.3608C109.768 51.4072 109.672 51.4503 109.536 51.4901C109.403 51.5298 109.254 51.5646 109.088 51.5945C108.923 51.6243 108.759 51.6508 108.596 51.674C108.434 51.6972 108.293 51.7171 108.174 51.7337C107.905 51.7701 107.665 51.8298 107.453 51.9126C107.241 51.9955 107.073 52.1115 106.951 52.2607C106.828 52.4065 106.767 52.5954 106.767 52.8274C106.767 53.1589 106.888 53.4091 107.13 53.5781C107.372 53.7472 107.68 53.8317 108.054 53.8317ZM118.288 55H116.32L119.904 44.8182H122.181L125.771 55H123.802L121.082 46.9062H121.003L118.288 55ZM118.353 51.0078H123.722V52.4893H118.353V51.0078ZM127.032 57.8636V47.3636H128.802V48.6264H128.906C128.999 48.4408 129.13 48.2436 129.299 48.0348C129.468 47.8227 129.697 47.642 129.985 47.4929C130.274 47.3404 130.642 47.2642 131.089 47.2642C131.679 47.2642 132.211 47.415 132.685 47.7166C133.162 48.0149 133.54 48.4574 133.818 49.044C134.1 49.6274 134.241 50.3433 134.241 51.1918C134.241 52.0303 134.103 52.7429 133.828 53.3295C133.553 53.9162 133.179 54.3636 132.705 54.6719C132.231 54.9801 131.694 55.1342 131.094 55.1342C130.656 55.1342 130.294 55.0613 130.005 54.9155C129.717 54.7696 129.485 54.594 129.309 54.3885C129.137 54.1797 129.003 53.9825 128.906 53.7969H128.832V57.8636H127.032ZM128.797 51.1818C128.797 51.6757 128.867 52.1082 129.006 52.4794C129.148 52.8506 129.352 53.1406 129.617 53.3494C129.886 53.5549 130.211 53.6577 130.592 53.6577C130.99 53.6577 131.323 53.5516 131.591 53.3395C131.86 53.1241 132.062 52.8307 132.198 52.4595C132.337 52.085 132.406 51.6591 132.406 51.1818C132.406 50.7079 132.338 50.2869 132.203 49.919C132.067 49.5511 131.865 49.2628 131.596 49.054C131.328 48.8452 130.993 48.7408 130.592 48.7408C130.207 48.7408 129.881 48.8419 129.612 49.044C129.344 49.2462 129.14 49.5296 129.001 49.8942C128.865 50.2588 128.797 50.688 128.797 51.1818ZM135.782 57.8636V47.3636H137.552V48.6264H137.656C137.749 48.4408 137.88 48.2436 138.049 48.0348C138.218 47.8227 138.447 47.642 138.735 47.4929C139.024 47.3404 139.392 47.2642 139.839 47.2642C140.429 47.2642 140.961 47.415 141.435 47.7166C141.912 48.0149 142.29 48.4574 142.568 49.044C142.85 49.6274 142.991 50.3433 142.991 51.1918C142.991 52.0303 142.853 52.7429 142.578 53.3295C142.303 53.9162 141.929 54.3636 141.455 54.6719C140.981 54.9801 140.444 55.1342 139.844 55.1342C139.406 55.1342 139.044 55.0613 138.755 54.9155C138.467 54.7696 138.235 54.594 138.059 54.3885C137.887 54.1797 137.753 53.9825 137.656 53.7969H137.582V57.8636H135.782ZM137.547 51.1818C137.547 51.6757 137.617 52.1082 137.756 52.4794C137.898 52.8506 138.102 53.1406 138.367 53.3494C138.636 53.5549 138.961 53.6577 139.342 53.6577C139.74 53.6577 140.073 53.5516 140.341 53.3395C140.61 53.1241 140.812 52.8307 140.948 52.4595C141.087 52.085 141.156 51.6591 141.156 51.1818C141.156 50.7079 141.088 50.2869 140.953 49.919C140.817 49.5511 140.615 49.2628 140.346 49.054C140.078 48.8452 139.743 48.7408 139.342 48.7408C138.957 48.7408 138.631 48.8419 138.362 49.044C138.094 49.2462 137.89 49.5296 137.751 49.8942C137.615 50.2588 137.547 50.688 137.547 51.1818ZM146.332 44.8182V55H144.532V44.8182H146.332ZM148.183 55V47.3636H149.982V55H148.183ZM149.087 46.2798C148.802 46.2798 148.557 46.1854 148.352 45.9964C148.146 45.8042 148.043 45.5739 148.043 45.3054C148.043 45.0336 148.146 44.8033 148.352 44.6143C148.557 44.4221 148.802 44.326 149.087 44.326C149.376 44.326 149.621 44.4221 149.823 44.6143C150.029 44.8033 150.131 45.0336 150.131 45.3054C150.131 45.5739 150.029 45.8042 149.823 45.9964C149.621 46.1854 149.376 46.2798 149.087 46.2798ZM155.164 55.1491C154.402 55.1491 153.747 54.9818 153.2 54.647C152.657 54.3123 152.237 53.8499 151.942 53.2599C151.651 52.6667 151.505 51.9839 151.505 51.2116C151.505 50.4361 151.654 49.7517 151.952 49.1584C152.251 48.5618 152.671 48.0978 153.215 47.7663C153.762 47.4316 154.408 47.2642 155.154 47.2642C155.774 47.2642 156.322 47.3786 156.8 47.6072C157.28 47.8326 157.663 48.1525 157.948 48.5668C158.233 48.9777 158.395 49.4583 158.435 50.0085H156.715C156.645 49.6406 156.48 49.334 156.218 49.0888C155.959 48.8402 155.613 48.7159 155.179 48.7159C154.811 48.7159 154.488 48.8153 154.209 49.0142C153.931 49.2098 153.714 49.4915 153.558 49.8594C153.406 50.2273 153.329 50.6681 153.329 51.1818C153.329 51.7022 153.406 52.1496 153.558 52.5241C153.711 52.8954 153.924 53.1821 154.199 53.3842C154.478 53.5831 154.804 53.6825 155.179 53.6825C155.444 53.6825 155.681 53.6328 155.89 53.5334C156.102 53.4306 156.279 53.2831 156.422 53.0909C156.564 52.8987 156.662 52.665 156.715 52.3899H158.435C158.392 52.9302 158.233 53.4091 157.958 53.8267C157.683 54.241 157.308 54.5658 156.834 54.8011C156.36 55.0331 155.804 55.1491 155.164 55.1491ZM162.11 55.1541C161.627 55.1541 161.191 55.0679 160.803 54.8956C160.418 54.7199 160.114 54.4614 159.888 54.12C159.666 53.7786 159.555 53.3577 159.555 52.8572C159.555 52.4264 159.635 52.0701 159.794 51.7884C159.953 51.5066 160.17 51.2812 160.445 51.1122C160.72 50.9432 161.03 50.8156 161.375 50.7294C161.723 50.6399 162.082 50.5753 162.453 50.5355C162.901 50.4891 163.264 50.4477 163.542 50.4112C163.821 50.3714 164.023 50.3118 164.149 50.2322C164.278 50.1494 164.343 50.0218 164.343 49.8494V49.8196C164.343 49.4451 164.232 49.1551 164.01 48.9496C163.788 48.7441 163.468 48.6413 163.05 48.6413C162.609 48.6413 162.26 48.7375 162.001 48.9297C161.746 49.1219 161.574 49.349 161.484 49.6108L159.804 49.3722C159.936 48.9081 160.155 48.5204 160.46 48.2088C160.765 47.8939 161.138 47.6586 161.578 47.5028C162.019 47.3438 162.507 47.2642 163.04 47.2642C163.408 47.2642 163.774 47.3073 164.139 47.3935C164.503 47.4796 164.837 47.6222 165.138 47.821C165.44 48.0166 165.682 48.2834 165.864 48.6214C166.05 48.9595 166.142 49.3821 166.142 49.8892V55H164.412V53.951H164.353C164.243 54.1631 164.089 54.362 163.89 54.5476C163.695 54.7299 163.448 54.8774 163.15 54.9901C162.855 55.0994 162.508 55.1541 162.11 55.1541ZM162.578 53.8317C162.939 53.8317 163.252 53.7604 163.517 53.6179C163.783 53.4721 163.986 53.2798 164.129 53.0412C164.275 52.8026 164.348 52.5424 164.348 52.2607V51.3608C164.291 51.4072 164.195 51.4503 164.059 51.4901C163.927 51.5298 163.778 51.5646 163.612 51.5945C163.446 51.6243 163.282 51.6508 163.12 51.674C162.957 51.6972 162.816 51.7171 162.697 51.7337C162.429 51.7701 162.188 51.8298 161.976 51.9126C161.764 51.9955 161.597 52.1115 161.474 52.2607C161.351 52.4065 161.29 52.5954 161.29 52.8274C161.29 53.1589 161.411 53.4091 161.653 53.5781C161.895 53.7472 162.203 53.8317 162.578 53.8317ZM171.765 47.3636V48.7557H167.375V47.3636H171.765ZM168.459 45.5341H170.259V52.7031C170.259 52.9451 170.295 53.1307 170.368 53.2599C170.444 53.3859 170.544 53.4721 170.667 53.5185C170.789 53.5649 170.925 53.5881 171.074 53.5881C171.187 53.5881 171.29 53.5798 171.382 53.5632C171.479 53.5466 171.551 53.5317 171.601 53.5185L171.904 54.9254C171.808 54.9586 171.671 54.995 171.492 55.0348C171.316 55.0746 171.101 55.0978 170.846 55.1044C170.395 55.1177 169.989 55.0497 169.627 54.9006C169.266 54.7481 168.98 54.5128 168.767 54.1946C168.559 53.8764 168.456 53.4787 168.459 53.0014V45.5341ZM173.27 55V47.3636H175.07V55H173.27ZM174.175 46.2798C173.89 46.2798 173.645 46.1854 173.439 45.9964C173.234 45.8042 173.131 45.5739 173.131 45.3054C173.131 45.0336 173.234 44.8033 173.439 44.6143C173.645 44.4221 173.89 44.326 174.175 44.326C174.464 44.326 174.709 44.4221 174.911 44.6143C175.117 44.8033 175.219 45.0336 175.219 45.3054C175.219 45.5739 175.117 45.8042 174.911 45.9964C174.709 46.1854 174.464 46.2798 174.175 46.2798ZM180.252 55.1491C179.506 55.1491 178.86 54.9851 178.313 54.657C177.766 54.3288 177.342 53.8698 177.04 53.2798C176.742 52.6899 176.593 52.0005 176.593 51.2116C176.593 50.4228 176.742 49.7318 177.04 49.1385C177.342 48.5452 177.766 48.0845 178.313 47.7564C178.86 47.4283 179.506 47.2642 180.252 47.2642C180.998 47.2642 181.644 47.4283 182.191 47.7564C182.738 48.0845 183.16 48.5452 183.458 49.1385C183.76 49.7318 183.911 50.4228 183.911 51.2116C183.911 52.0005 183.76 52.6899 183.458 53.2798C183.16 53.8698 182.738 54.3288 182.191 54.657C181.644 54.9851 180.998 55.1491 180.252 55.1491ZM180.262 53.7074C180.666 53.7074 181.004 53.5964 181.276 53.3743C181.548 53.1489 181.75 52.8473 181.882 52.4695C182.018 52.0916 182.086 51.6707 182.086 51.2067C182.086 50.7393 182.018 50.3168 181.882 49.9389C181.75 49.5578 181.548 49.2545 181.276 49.0291C181.004 48.8037 180.666 48.6911 180.262 48.6911C179.847 48.6911 179.503 48.8037 179.228 49.0291C178.956 49.2545 178.752 49.5578 178.616 49.9389C178.484 50.3168 178.417 50.7393 178.417 51.2067C178.417 51.6707 178.484 52.0916 178.616 52.4695C178.752 52.8473 178.956 53.1489 179.228 53.3743C179.503 53.5964 179.847 53.7074 180.262 53.7074ZM187.238 50.5256V55H185.438V47.3636H187.159V48.6612H187.248C187.424 48.2337 187.704 47.8939 188.088 47.642C188.476 47.3902 188.955 47.2642 189.525 47.2642C190.052 47.2642 190.511 47.3769 190.902 47.6023C191.297 47.8277 191.602 48.1541 191.817 48.5817C192.036 49.0092 192.143 49.5279 192.14 50.1378V55H190.34V50.4162C190.34 49.9058 190.208 49.5064 189.943 49.218C189.681 48.9297 189.318 48.7855 188.854 48.7855C188.539 48.7855 188.259 48.8551 188.014 48.9943C187.772 49.1302 187.581 49.3274 187.442 49.5859C187.306 49.8445 187.238 50.1577 187.238 50.5256Z" fill="#0C0B2D"/>
<path opacity="0.45" d="M90.0227 66C89.929 65.7131 89.8054 65.456 89.652 65.2287C89.5014 64.9986 89.321 64.8026 89.1108 64.6406C88.9034 64.4787 88.6676 64.3551 88.4034 64.2699C88.1392 64.1847 87.8494 64.142 87.5341 64.142C87.017 64.142 86.5469 64.2756 86.1236 64.5426C85.7003 64.8097 85.3636 65.2031 85.1136 65.723C84.8636 66.2429 84.7386 66.8807 84.7386 67.6364C84.7386 68.392 84.8651 69.0298 85.1179 69.5497C85.3707 70.0696 85.7131 70.4631 86.1449 70.7301C86.5767 70.9972 87.0625 71.1307 87.6023 71.1307C88.1023 71.1307 88.5426 71.0241 88.9233 70.8111C89.3068 70.5952 89.6051 70.2912 89.8182 69.8991C90.0341 69.5043 90.142 69.0398 90.142 68.5057L90.4659 68.5739H87.8409V67.6364H91.1648V68.5739C91.1648 69.2926 91.0114 69.9176 90.7045 70.4489C90.4006 70.9801 89.9801 71.392 89.4432 71.6847C88.9091 71.9744 88.2955 72.1193 87.6023 72.1193C86.8295 72.1193 86.1506 71.9375 85.5653 71.5739C84.983 71.2102 84.5284 70.6932 84.2017 70.0227C83.8778 69.3523 83.7159 68.5568 83.7159 67.6364C83.7159 66.946 83.8082 66.3253 83.9929 65.7741C84.1804 65.2202 84.4446 64.7486 84.7855 64.3594C85.1264 63.9702 85.5298 63.6719 85.9957 63.4645C86.4616 63.2571 86.9744 63.1534 87.5341 63.1534C87.9943 63.1534 88.4233 63.223 88.821 63.3622C89.2216 63.4986 89.5781 63.6932 89.8906 63.946C90.206 64.196 90.4688 64.4957 90.679 64.8452C90.8892 65.1918 91.0341 65.5767 91.1136 66H90.0227ZM95.5827 72.1364C94.9521 72.1364 94.408 71.9972 93.9506 71.7188C93.4961 71.4375 93.1452 71.0455 92.8981 70.5426C92.6538 70.0369 92.5316 69.4489 92.5316 68.7784C92.5316 68.108 92.6538 67.517 92.8981 67.0057C93.1452 66.4915 93.489 66.0909 93.9293 65.804C94.3725 65.5142 94.8896 65.3693 95.4805 65.3693C95.8214 65.3693 96.158 65.4261 96.4904 65.5398C96.8228 65.6534 97.1254 65.8381 97.3981 66.0938C97.6708 66.3466 97.8881 66.6818 98.0501 67.0994C98.212 67.517 98.293 68.0312 98.293 68.642V69.0682H93.2475V68.1989H97.2702C97.2702 67.8295 97.1964 67.5 97.0487 67.2102C96.9038 66.9205 96.6964 66.6918 96.4265 66.5241C96.1594 66.3565 95.8441 66.2727 95.4805 66.2727C95.0799 66.2727 94.7333 66.3722 94.4407 66.571C94.1509 66.767 93.9279 67.0227 93.7717 67.3381C93.6154 67.6534 93.5373 67.9915 93.5373 68.3523V68.9318C93.5373 69.4261 93.6225 69.8452 93.793 70.1889C93.9663 70.5298 94.2063 70.7898 94.5131 70.9688C94.82 71.1449 95.1765 71.233 95.5827 71.233C95.8469 71.233 96.0856 71.196 96.2987 71.1222C96.5146 71.0455 96.7006 70.9318 96.8569 70.7812C97.0131 70.6278 97.1339 70.4375 97.2191 70.2102L98.1907 70.483C98.0884 70.8125 97.9165 71.1023 97.6751 71.3523C97.4336 71.5994 97.1353 71.7926 96.7802 71.9318C96.4251 72.0682 96.0259 72.1364 95.5827 72.1364ZM100.828 68.0625V72H99.8228V65.4545H100.794V66.4773H100.88C101.033 66.1449 101.266 65.8778 101.578 65.6761C101.891 65.4716 102.294 65.3693 102.789 65.3693C103.232 65.3693 103.62 65.4602 103.952 65.642C104.284 65.821 104.543 66.0938 104.728 66.4602C104.912 66.8239 105.005 67.2841 105.005 67.8409V72H103.999V67.9091C103.999 67.3949 103.865 66.9943 103.598 66.7074C103.331 66.4176 102.965 66.2727 102.499 66.2727C102.178 66.2727 101.891 66.3423 101.638 66.4815C101.388 66.6207 101.191 66.8239 101.046 67.0909C100.901 67.358 100.828 67.6818 100.828 68.0625ZM109.587 72.1364C108.956 72.1364 108.412 71.9972 107.955 71.7188C107.5 71.4375 107.149 71.0455 106.902 70.5426C106.658 70.0369 106.536 69.4489 106.536 68.7784C106.536 68.108 106.658 67.517 106.902 67.0057C107.149 66.4915 107.493 66.0909 107.933 65.804C108.376 65.5142 108.893 65.3693 109.484 65.3693C109.825 65.3693 110.162 65.4261 110.494 65.5398C110.827 65.6534 111.129 65.8381 111.402 66.0938C111.675 66.3466 111.892 66.6818 112.054 67.0994C112.216 67.517 112.297 68.0312 112.297 68.642V69.0682H107.251V68.1989H111.274C111.274 67.8295 111.2 67.5 111.053 67.2102C110.908 66.9205 110.7 66.6918 110.43 66.5241C110.163 66.3565 109.848 66.2727 109.484 66.2727C109.084 66.2727 108.737 66.3722 108.445 66.571C108.155 66.767 107.932 67.0227 107.776 67.3381C107.619 67.6534 107.541 67.9915 107.541 68.3523V68.9318C107.541 69.4261 107.626 69.8452 107.797 70.1889C107.97 70.5298 108.21 70.7898 108.517 70.9688C108.824 71.1449 109.18 71.233 109.587 71.233C109.851 71.233 110.089 71.196 110.303 71.1222C110.518 71.0455 110.705 70.9318 110.861 70.7812C111.017 70.6278 111.138 70.4375 111.223 70.2102L112.195 70.483C112.092 70.8125 111.92 71.1023 111.679 71.3523C111.438 71.5994 111.139 71.7926 110.784 71.9318C110.429 72.0682 110.03 72.1364 109.587 72.1364ZM113.827 72V65.4545H114.798V66.4432H114.866C114.986 66.1193 115.202 65.8565 115.514 65.6548C115.827 65.4531 116.179 65.3523 116.571 65.3523C116.645 65.3523 116.737 65.3537 116.848 65.3565C116.959 65.3594 117.043 65.3636 117.099 65.3693V66.392C117.065 66.3835 116.987 66.3707 116.865 66.3537C116.746 66.3338 116.619 66.3239 116.486 66.3239C116.168 66.3239 115.884 66.3906 115.634 66.5241C115.386 66.6548 115.19 66.8366 115.045 67.0696C114.903 67.2997 114.832 67.5625 114.832 67.858V72H113.827ZM120.218 72.1534C119.803 72.1534 119.426 72.0753 119.088 71.919C118.75 71.7599 118.482 71.5312 118.283 71.233C118.084 70.9318 117.985 70.5682 117.985 70.142C117.985 69.767 118.059 69.4631 118.206 69.2301C118.354 68.9943 118.551 68.8097 118.799 68.6761C119.046 68.5426 119.319 68.4432 119.617 68.3778C119.918 68.3097 120.221 68.2557 120.525 68.2159C120.922 68.1648 121.245 68.1264 121.492 68.1009C121.742 68.0724 121.924 68.0256 122.037 67.9602C122.154 67.8949 122.212 67.7812 122.212 67.6193V67.5852C122.212 67.1648 122.097 66.8381 121.867 66.6051C121.64 66.3722 121.294 66.2557 120.831 66.2557C120.351 66.2557 119.975 66.3608 119.702 66.571C119.429 66.7812 119.238 67.0057 119.127 67.2443L118.172 66.9034C118.343 66.5057 118.57 66.196 118.854 65.9744C119.141 65.75 119.453 65.5937 119.792 65.5057C120.132 65.4148 120.468 65.3693 120.797 65.3693C121.007 65.3693 121.249 65.3949 121.522 65.446C121.797 65.4943 122.063 65.5952 122.319 65.7486C122.577 65.902 122.792 66.1335 122.962 66.4432C123.132 66.7528 123.218 67.1676 123.218 67.6875V72H122.212V71.1136H122.161C122.093 71.2557 121.979 71.4077 121.82 71.5696C121.661 71.7315 121.449 71.8693 121.185 71.983C120.921 72.0966 120.598 72.1534 120.218 72.1534ZM120.371 71.25C120.769 71.25 121.104 71.1719 121.377 71.0156C121.652 70.8594 121.86 70.6577 121.999 70.4105C122.141 70.1634 122.212 69.9034 122.212 69.6307V68.7102C122.169 68.7614 122.076 68.8082 121.931 68.8509C121.789 68.8906 121.624 68.9261 121.436 68.9574C121.252 68.9858 121.071 69.0114 120.895 69.0341C120.722 69.054 120.581 69.071 120.473 69.0852C120.212 69.1193 119.968 69.1747 119.74 69.2514C119.516 69.3253 119.334 69.4375 119.195 69.5881C119.059 69.7358 118.99 69.9375 118.99 70.1932C118.99 70.5426 119.12 70.8068 119.378 70.9858C119.64 71.1619 119.971 71.25 120.371 71.25ZM127.9 65.4545V66.3068H124.508V65.4545H127.9ZM125.496 63.8864H126.502V70.125C126.502 70.4091 126.543 70.6222 126.626 70.7642C126.711 70.9034 126.819 70.9972 126.95 71.0455C127.083 71.0909 127.224 71.1136 127.371 71.1136C127.482 71.1136 127.573 71.108 127.644 71.0966C127.715 71.0824 127.772 71.071 127.815 71.0625L128.019 71.9659C127.951 71.9915 127.856 72.017 127.734 72.0426C127.612 72.071 127.457 72.0852 127.269 72.0852C126.985 72.0852 126.707 72.0241 126.434 71.902C126.164 71.7798 125.94 71.5938 125.761 71.3438C125.585 71.0938 125.496 70.7784 125.496 70.3977V63.8864ZM129.413 72V65.4545H130.418V72H129.413ZM129.924 64.3636C129.728 64.3636 129.559 64.2969 129.417 64.1634C129.278 64.0298 129.208 63.8693 129.208 63.6818C129.208 63.4943 129.278 63.3338 129.417 63.2003C129.559 63.0668 129.728 63 129.924 63C130.12 63 130.288 63.0668 130.427 63.2003C130.569 63.3338 130.64 63.4943 130.64 63.6818C130.64 63.8693 130.569 64.0298 130.427 64.1634C130.288 64.2969 130.12 64.3636 129.924 64.3636ZM133.266 68.0625V72H132.26V65.4545H133.232V66.4773H133.317C133.471 66.1449 133.703 65.8778 134.016 65.6761C134.328 65.4716 134.732 65.3693 135.226 65.3693C135.669 65.3693 136.057 65.4602 136.39 65.642C136.722 65.821 136.98 66.0938 137.165 66.4602C137.35 66.8239 137.442 67.2841 137.442 67.8409V72H136.436V67.9091C136.436 67.3949 136.303 66.9943 136.036 66.7074C135.769 66.4176 135.402 66.2727 134.936 66.2727C134.615 66.2727 134.328 66.3423 134.076 66.4815C133.826 66.6207 133.628 66.8239 133.483 67.0909C133.338 67.358 133.266 67.6818 133.266 68.0625ZM141.922 74.5909C141.436 74.5909 141.018 74.5284 140.669 74.4034C140.32 74.2812 140.028 74.1193 139.795 73.9176C139.565 73.7188 139.382 73.5057 139.246 73.2784L140.047 72.7159C140.138 72.8352 140.253 72.9716 140.392 73.125C140.531 73.2812 140.722 73.4162 140.963 73.5298C141.207 73.6463 141.527 73.7045 141.922 73.7045C142.45 73.7045 142.886 73.5767 143.23 73.321C143.574 73.0653 143.746 72.6648 143.746 72.1193V70.7898H143.661C143.587 70.9091 143.482 71.0568 143.345 71.233C143.212 71.4062 143.018 71.5611 142.766 71.6974C142.516 71.831 142.178 71.8977 141.751 71.8977C141.223 71.8977 140.749 71.7727 140.328 71.5227C139.911 71.2727 139.58 70.9091 139.335 70.4318C139.094 69.9545 138.973 69.375 138.973 68.6932C138.973 68.0227 139.091 67.4389 139.327 66.9418C139.563 66.4418 139.891 66.0554 140.311 65.7827C140.732 65.5071 141.217 65.3693 141.768 65.3693C142.195 65.3693 142.533 65.4403 142.783 65.5824C143.036 65.7216 143.229 65.8807 143.362 66.0597C143.499 66.2358 143.604 66.3807 143.678 66.4943H143.78V65.4545H144.751V72.1875C144.751 72.75 144.624 73.2074 144.368 73.5597C144.115 73.9148 143.774 74.1747 143.345 74.3395C142.919 74.5071 142.445 74.5909 141.922 74.5909ZM141.888 70.9943C142.291 70.9943 142.632 70.902 142.911 70.7173C143.189 70.5327 143.401 70.267 143.545 69.9205C143.69 69.5739 143.763 69.1591 143.763 68.6761C143.763 68.2045 143.692 67.7884 143.55 67.4276C143.408 67.0668 143.197 66.7841 142.919 66.5795C142.641 66.375 142.297 66.2727 141.888 66.2727C141.462 66.2727 141.107 66.3807 140.822 66.5966C140.541 66.8125 140.33 67.1023 140.188 67.4659C140.048 67.8295 139.979 68.233 139.979 68.6761C139.979 69.1307 140.05 69.5327 140.192 69.8821C140.337 70.2287 140.55 70.5014 140.831 70.7003C141.115 70.8963 141.467 70.9943 141.888 70.9943Z" fill="#0C0B2D"/>
<path opacity="0.3" d="M282.028 53.2727L284.3 60.142H284.389L286.656 53.2727H288.395L285.318 62H283.366L280.294 53.2727H282.028ZM289.476 62V55.4545H291.019V62H289.476ZM290.252 54.5256C290.007 54.5256 289.797 54.4446 289.621 54.2827C289.445 54.1179 289.357 53.9205 289.357 53.6903C289.357 53.4574 289.445 53.2599 289.621 53.098C289.797 52.9332 290.007 52.8509 290.252 52.8509C290.499 52.8509 290.709 52.9332 290.882 53.098C291.059 53.2599 291.147 53.4574 291.147 53.6903C291.147 53.9205 291.059 54.1179 290.882 54.2827C290.709 54.4446 290.499 54.5256 290.252 54.5256ZM295.503 62.1278C294.847 62.1278 294.28 61.9915 293.803 61.7188C293.328 61.4432 292.963 61.054 292.707 60.5511C292.452 60.0455 292.324 59.4503 292.324 58.7656C292.324 58.0923 292.452 57.5014 292.707 56.9929C292.966 56.4815 293.327 56.0838 293.79 55.7997C294.253 55.5128 294.797 55.3693 295.422 55.3693C295.825 55.3693 296.206 55.4347 296.564 55.5653C296.925 55.6932 297.243 55.892 297.518 56.1619C297.797 56.4318 298.016 56.7756 298.175 57.1932C298.334 57.608 298.413 58.1023 298.413 58.6761V59.1491H293.048V58.1094H296.935C296.932 57.8139 296.868 57.5511 296.743 57.321C296.618 57.0881 296.443 56.9048 296.219 56.7713C295.997 56.6378 295.739 56.571 295.443 56.571C295.128 56.571 294.851 56.6477 294.612 56.8011C294.374 56.9517 294.188 57.1506 294.054 57.3977C293.923 57.642 293.857 57.9105 293.854 58.2031V59.1108C293.854 59.4915 293.923 59.8182 294.062 60.0909C294.202 60.3608 294.396 60.5682 294.646 60.7131C294.896 60.8551 295.189 60.9261 295.524 60.9261C295.749 60.9261 295.952 60.8949 296.134 60.8324C296.315 60.767 296.473 60.6719 296.607 60.5469C296.74 60.4219 296.841 60.267 296.909 60.0824L298.349 60.2443C298.259 60.625 298.085 60.9574 297.83 61.2415C297.577 61.5227 297.253 61.7415 296.858 61.8977C296.463 62.0511 296.011 62.1278 295.503 62.1278ZM301.034 62L299.185 55.4545H300.757L301.908 60.0568H301.967L303.143 55.4545H304.699L305.875 60.0312H305.939L307.072 55.4545H308.649L306.795 62H305.189L303.962 57.5767H303.872L302.645 62H301.034Z" fill="#2676F7"/>
<path d="M66 58.5C66 58.3174 65.9961 58.1357 65.9883 57.955L64.9892 57.9979C64.8691 55.2006 63.7496 52.6622 61.9788 50.7307L62.7159 50.0549C62.4702 49.787 62.213 49.5298 61.9451 49.2841L61.2693 50.0212C59.3378 48.2504 56.7994 47.1309 54.0021 47.0108L54.045 46.0117C53.8643 46.0039 53.6826 46 53.5 46C53.3174 46 53.1357 46.0039 52.955 46.0117L52.9979 47.0108C50.2006 47.1309 47.6622 48.2504 45.7307 50.0212L45.0549 49.2841C44.787 49.5298 44.5298 49.787 44.2841 50.0549L45.0212 50.7307C43.2504 52.6622 42.1309 55.2006 42.0108 57.9979L41.0117 57.955C41.0039 58.1357 41 58.3174 41 58.5C41 58.6826 41.0039 58.8643 41.0117 59.045L42.0108 59.0021C42.1309 61.7994 43.2504 64.3378 45.0212 66.2693L44.2841 66.9451C44.5298 67.213 44.787 67.4702 45.0549 67.7159L45.7307 66.9788C47.6622 68.7496 50.2006 69.8691 52.9979 69.9892L52.955 70.9883C53.1357 70.9961 53.3174 71 53.5 71C53.6826 71 53.8643 70.9961 54.045 70.9883L54.0021 69.9892C56.7994 69.8691 59.3378 68.7496 61.2693 66.9788L61.9451 67.7159C62.213 67.4702 62.4702 67.213 62.7159 66.9451L61.9788 66.2693C63.7496 64.3378 64.8691 61.7994 64.9892 59.0021L65.9883 59.045C65.9961 58.8643 66 58.6826 66 58.5Z" stroke="#3BE155" stroke-width="2" stroke-dasharray="1 8"/>
<path fill-rule="evenodd" clip-rule="evenodd" d="M67 58.5C67 65.9558 60.9558 72 53.5 72C46.0442 72 40 65.9558 40 58.5C40 51.0442 46.0442 45 53.5 45C60.9558 45 67 51.0442 67 58.5ZM49 63.8333C49 63.9254 49.0793 64 49.1771 64H58.7412V55H55.921C55.8232 55 55.7439 54.9254 55.7439 54.8333V52H49.1771C49.0793 52 49 52.0746 49 52.1667V63.8333ZM56.2257 52V54.5255H58.7412L56.2257 52Z" fill="#625EE3"/>
</g>
<defs>
<filter id="filter0_d_136_735" x="-14" y="0" width="376" height="135" filterUnits="userSpaceOnUse" color-interpolation-filters="sRGB">
<feFlood flood-opacity="0" result="BackgroundImageFix"/>
<feColorMatrix in="SourceAlpha" type="matrix" values="0 0 0 0 0 0 0 0 0 0 0 0 0 0 0 0 0 0 127 0" result="hardAlpha"/>
<feOffset dy="9"/>
<feGaussianBlur stdDeviation="15"/>
<feComposite in2="hardAlpha" operator="out"/>
<feColorMatrix type="matrix" values="0 0 0 0 0.0778836 0 0 0 0 0.0681481 0 0 0 0 0.391852 0 0 0 0.1 0"/>
<feBlend mode="normal" in2="BackgroundImageFix" result="effect1_dropShadow_136_735"/>
<feBlend mode="normal" in="SourceGraphic" in2="effect1_dropShadow_136_735" result="shape"/>
</filter>
</defs>
</svg>
