<svg width="20" height="20" viewBox="0 0 20 20" fill="none" xmlns="http://www.w3.org/2000/svg">
<path fill-rule="evenodd" clip-rule="evenodd" d="M1.21801 3.082C0.833008 3.62 0.833008 5.22 0.833008 8.417V9.991C0.833008 15.629 5.15051 18.366 7.85977 19.527C8.59412 19.842 8.9618 20 9.99967 20C11.0386 20 11.4052 19.842 12.1396 19.527C14.8488 18.365 19.1663 15.63 19.1663 9.991V8.417C19.1663 5.219 19.1663 3.62 18.7813 3.082C18.3974 2.545 16.8665 2.03 13.8038 1.001L13.2202 0.805C11.6242 0.268 10.8267 0 9.99967 0C9.17366 0 8.37514 0.268 6.77912 0.805L6.19551 1C3.13282 2.03 1.60199 2.545 1.21801 3.082ZM13.1153 8.5C13.2431 8.35074 13.3066 8.1585 13.2925 7.96402C13.2783 7.76955 13.1876 7.58813 13.0395 7.45823C12.8914 7.32832 12.6976 7.26013 12.4992 7.26811C12.3008 7.2761 12.1134 7.35963 11.9766 7.501L8.90884 10.875L8.02273 9.901C7.8873 9.75408 7.69816 9.66574 7.49661 9.65529C7.29507 9.64485 7.0975 9.71313 6.94707 9.84524C6.79664 9.97735 6.70557 10.1625 6.69376 10.3604C6.68195 10.5582 6.75035 10.7525 6.88403 10.901L8.33847 12.501C8.41013 12.5798 8.49793 12.6429 8.59614 12.686C8.69434 12.7292 8.80073 12.7515 8.90833 12.7515C9.01593 12.7515 9.12232 12.7292 9.22053 12.686C9.31873 12.6429 9.40654 12.5798 9.47819 12.501L13.1163 8.501L13.1153 8.5Z" fill="#518F4A"/>
</svg>
