<svg width="20" height="18" viewBox="0 0 20 18" fill="none" xmlns="http://www.w3.org/2000/svg">
<path d="M9.66732 3.66663L4.33398 10.0666H9.13398L8.60065 14.3333L13.934 7.93329H9.13398L9.66732 3.66663Z" fill="#517BFB"/>
<path d="M17 9.00001C17 7.02569 16.2699 5.1211 14.9503 3.65264C13.6306 2.18417 11.8145 1.25556 9.85139 1.04545C7.88829 0.835338 5.91682 1.35856 4.31625 2.51447C2.71568 3.67037 1.59907 5.37731 1.18123 7.30691C0.763392 9.23651 1.07383 11.2525 2.05284 12.967C3.03184 14.6814 4.61025 15.9734 6.48442 16.5942C8.3586 17.215 10.3961 17.1209 12.2051 16.3299C14.014 15.5389 15.4666 14.107 16.2834 12.3095M17 9.00001L18.7143 7.28572M17 9.00001L15.2857 7.28571" stroke="#517BFB"/>
</svg>
