<svg width="44" height="32" viewBox="0 0 44 32" fill="none" xmlns="http://www.w3.org/2000/svg">
<path d="M20.4286 3.2L18.2063 0.93728C17.6168 0.33712 16.8174 0 15.9839 0H1.57143C0.703529 0 0 0.71632 0 1.6V31.4667C0 31.7612 0.23451 32 0.52381 32H43.4762C43.7655 32 44 31.7612 44 31.4667V4.8C44 3.91632 43.2965 3.2 42.4286 3.2H20.4286Z" fill="#E6EBFF"/>
<path d="M20.4286 3.2L18.2063 5.46272C17.6168 6.06288 16.8174 6.4 15.9839 6.4H0V31.4667C0 31.7612 0.23451 32 0.52381 32H43.4762C43.7655 32 44 31.7612 44 31.4667V4.8C44 3.91632 43.2965 3.2 42.4286 3.2H20.4286Z" fill="#FFD75E"/>
<path d="M20.4286 3.2L18.2063 5.46272C17.6168 6.06288 16.8174 6.4 15.9839 6.4H0V31.4667C0 31.7612 0.23451 32 0.52381 32H43.4762C43.7655 32 44 31.7612 44 31.4667V4.8C44 3.91632 43.2965 3.2 42.4286 3.2H20.4286Z" fill="url(#paint0_linear_325_1934)"/>
<path d="M0 6.4V6.93333H16.0288C17.0013 6.93333 17.9339 6.54 18.6215 5.83984L21.2143 3.2H20.4286L18.2063 5.46272C17.6168 6.06288 16.8174 6.4 15.9839 6.4H0Z" fill="white"/>
<path d="M43.4762 32H0.52381C0.23451 32 0 31.7612 0 31.4667H44C44 31.7612 43.7655 32 43.4762 32Z" fill="#CCD7FF"/>
<defs>
<linearGradient id="paint0_linear_325_1934" x1="-1.20389e-06" y1="2.96296" x2="51.3863" y2="31.5985" gradientUnits="userSpaceOnUse">
<stop stop-color="#9AB0FE"/>
<stop offset="1" stop-color="#B3C4FF"/>
</linearGradient>
</defs>
</svg>
