<svg width="23" height="16" viewBox="0 0 23 16" fill="none" xmlns="http://www.w3.org/2000/svg">
<path d="M20.9401 14.0783C20.1157 15.1321 18.6943 15.3875 17.3563 15.3875H13V13C13 12.4477 13.4477 12 14 12H16C16.961 12 17.3688 10.7766 16.6 10.2L11.6 6.45C11.2444 6.18333 10.7556 6.18333 10.4 6.45L5.4 10.2C4.63119 10.7766 5.03899 12 6 12H8C8.55228 12 9 12.4477 9 13V15.3875H7.61512C5.55481 15.3875 3.5634 14.6456 2.00533 13.2975C1.20457 12.3914 0.619653 11.3155 0.294545 10.1508C-0.0305634 8.98607 -0.0873989 7.76279 0.128311 6.57294C0.344021 5.38308 0.826664 4.2576 1.53995 3.28112C2.25324 2.30465 3.17862 1.50257 4.24651 0.935208C5.3144 0.367843 6.49701 0.0499485 7.70545 0.00542493C8.91388 -0.0390986 10.1167 0.190907 11.2234 0.67815C12.3302 1.16539 13.3121 1.89719 14.0953 2.81854C14.8785 3.73988 15.4426 4.82678 15.7453 5.99754H17.0053C18.1162 5.99828 19.1952 6.36892 20.072 7.05099C20.9488 7.73305 21.5735 8.68769 21.8475 9.76423C22.1215 10.8408 22.0292 11.9779 21.5852 12.9962C21.4156 13.3852 21.1983 13.7484 20.9401 14.0783Z" fill="white"/>
</svg>
