<svg width="16" height="18" viewBox="0 0 16 18" fill="none" xmlns="http://www.w3.org/2000/svg">
<path d="M11.4 1V4.2M5 1V4.2M1 7.4H15.4M2.6 2.6H13.8C14.6837 2.6 15.4 3.31634 15.4 4.2V15.4C15.4 16.2837 14.6837 17 13.8 17H2.6C1.71634 17 1 16.2837 1 15.4V4.2C1 3.31634 1.71634 2.6 2.6 2.6Z" stroke="#B6BED8" stroke-linecap="round" stroke-linejoin="round"/>
</svg>
