<svg width="69" height="86" viewBox="0 0 69 86" fill="none" xmlns="http://www.w3.org/2000/svg">
<path d="M26.7012 1.99561H38.1855V61.2578C38.1855 64.4291 35.6147 67 32.4434 67C29.272 67 26.7012 64.4291 26.7012 61.2578V1.99561Z" fill="#D6EFEC" stroke="#92D3CE" stroke-width="2"/>
<path d="M4 55.875C4 53.7349 5.7349 52 7.875 52C10.0151 52 11.75 53.7349 11.75 55.875V59.375C11.75 61.5151 10.0151 63.25 7.875 63.25C5.7349 63.25 4 61.5151 4 59.375V55.875Z" fill="#D6EFEC" stroke="#92D3CE" stroke-width="2"/>
<path d="M1.70117 1.99561H13.1855V16.9956H1.70117V1.99561Z" fill="#D6EFEC" stroke="#92D3CE" stroke-width="2"/>
<circle cx="50.8545" cy="67.02" r="16.0439" fill="#F1922B" stroke="white" stroke-width="4"/>
<path d="M44.7012 66.8582L49.304 71.4613L58.1858 62.5796" stroke="white" stroke-width="3" stroke-linecap="round"/>
<path d="M29.1055 10.7456H37.3125" stroke="#92D3CE" stroke-width="3" stroke-linecap="square"/>
<path d="M4.10547 9.74561H12.3125" stroke="#92D3CE" stroke-width="3" stroke-linecap="square"/>
<path d="M33.209 25.3706L37.3125 25.3706" stroke="#92D3CE" stroke-width="3" stroke-linecap="square"/>
<path d="M33.2109 35.9956L37.3145 35.9956" stroke="#92D3CE" stroke-width="3" stroke-linecap="square"/>
<path d="M32.7109 34.1099V27.0063" stroke="#92D3CE" stroke-width="2" stroke-linecap="square"/>
<path d="M7.71094 50.1099L7.71094 19.0063" stroke="#92D3CE" stroke-width="3" stroke-linecap="square"/>
</svg>
