<svg width="26" height="24" viewBox="0 0 26 24" fill="none" xmlns="http://www.w3.org/2000/svg">
<path d="M9 18.25L2 22.25V6.25L9 2.25M9 18.25L17 22.25M9 18.25V2.25M17 22.25L24 18.25V2.25L17 6.25M17 22.25V6.25M17 6.25L9 2.25" stroke="white" stroke-width="3" stroke-linecap="round" stroke-linejoin="round"/>
</svg>
