<svg width="25" height="20" viewBox="0 0 25 20" fill="none" xmlns="http://www.w3.org/2000/svg">
<path d="M24.375 17.5H0.624999C0.279687 17.5 0 17.7797 0 18.125V19.375C0 19.7203 0.279687 20 0.624999 20H24.375C24.7203 20 25 19.7203 25 19.375V18.125C25 17.7797 24.7203 17.5 24.375 17.5ZM1.75039 8.03361L5.21679 11.1586C5.50122 11.4154 5.84202 11.6018 6.21171 11.7027L17.4461 14.7633C18.4804 15.0449 19.5773 15.1039 20.6101 14.8164C21.7691 14.4934 22.307 13.9879 22.4558 13.4215C22.6054 12.8551 22.3882 12.1438 21.5429 11.2746C20.7898 10.5004 19.8105 9.99377 18.7761 9.71212L14.9672 8.67463L11.0469 1.1805C10.9879 0.953545 10.8144 0.776201 10.5914 0.715264L8.04882 0.0226867C7.63632 -0.0898131 7.23241 0.230499 7.23983 0.664873L9.1117 7.07932L5.11952 5.99182L4.04179 3.34026C3.9664 3.14924 3.80703 3.00549 3.61132 2.95237L2.05937 2.52932C1.65547 2.41917 1.25742 2.72464 1.25 3.14964L1.25898 7.12541C1.2664 7.47346 1.49453 7.80275 1.75039 8.03361Z" fill="#ABABAB"/>
</svg>
