<?xml version="1.0" encoding="iso-8859-1"?>
<!-- Generator: Adobe Illustrator 22.0.1, SVG Export Plug-In . SVG Version: 6.00 Build 0)  -->
<svg version="1.1" id="Layer_1" xmlns="http://www.w3.org/2000/svg" xmlns:xlink="http://www.w3.org/1999/xlink" x="0px" y="0px"
	 viewBox="0 0 370 300" style="enable-background:new 0 0 370 300;" xml:space="preserve">
<linearGradient id="SVGID_1_" gradientUnits="userSpaceOnUse" x1="-234.8322" y1="744.7457" x2="-234.8322" y2="744.8407" gradientTransform="matrix(2498.5601 0 0 -485.7357 586927.3125 361916.5625)">
	<stop  offset="0" style="stop-color:#43ADDC"/>
	<stop  offset="1" style="stop-color:#53B7D9"/>
</linearGradient>
<path style="fill:url(#SVGID_1_);" d="M64.737,151.243c0,4.481-1.332,8.256-4.007,11.312c-2.791,3.202-6.417,4.809-10.856,4.809
	c-4.451,0-8.065-1.607-10.856-4.809c-2.675-3.056-4.018-6.83-4.018-11.312c0-4.494,1.342-8.267,4.018-11.312
	c2.822-3.172,6.448-4.757,10.856-4.757c4.439,0,8.065,1.585,10.856,4.757C63.404,142.976,64.737,146.749,64.737,151.243
	L64.737,151.243z M55.899,151.243c0-2.03-0.486-3.743-1.458-5.128c-1.088-1.574-2.611-2.357-4.566-2.357
	c-1.956,0-3.478,0.782-4.567,2.357c-0.983,1.385-1.469,3.098-1.469,5.128c0,2.019,0.486,3.752,1.469,5.179
	c1.089,1.574,2.612,2.358,4.567,2.358c1.955,0,3.478-0.783,4.566-2.358C55.413,154.995,55.899,153.261,55.899,151.243z
	 M96.693,151.243c0,4.186-1.205,7.843-3.626,10.972c-2.59,3.425-5.93,5.148-9.99,5.148c-2.865,0-5.296-0.835-7.283-2.484
	c0,0.38,0.042,1.3,0.127,2.77c0.084,1.478,0.126,2.684,0.126,3.635c0,5.255-1.564,7.876-4.693,7.876
	c-1.28,0-2.326-0.455-3.161-1.354c-0.824-0.908-1.237-1.999-1.237-3.287v-34.177c0-1.247,0.423-2.326,1.269-3.234
	c0.846-0.899,1.893-1.352,3.14-1.352c1.881,0,3.255,0.939,4.123,2.811c1.85-2.262,4.376-3.394,7.579-3.394c4.07,0,7.4,1.69,10,5.085
	C95.478,143.399,96.693,147.057,96.693,151.243L96.693,151.243z M87.855,151.243c0-2.03-0.496-3.743-1.468-5.128
	c-1.09-1.574-2.612-2.357-4.567-2.357c-1.955,0-3.478,0.782-4.567,2.357c-0.973,1.385-1.458,3.098-1.458,5.128
	c0,2.019,0.486,3.752,1.458,5.179c1.089,1.574,2.612,2.358,4.567,2.358c1.956,0,3.478-0.783,4.567-2.358
	C87.359,154.995,87.855,153.261,87.855,151.243z M128.85,150.292c0,1.478-0.349,2.493-1.047,3.065
	c-0.697,0.56-1.786,0.845-3.255,0.845h-15.952c0,1.692,0.793,2.991,2.379,3.899c1.279,0.71,2.844,1.07,4.693,1.07
	c1.438,0,3.161-0.478,5.18-1.417c2.019-0.952,3.319-1.418,3.88-1.418c1.025,0,1.891,0.37,2.61,1.131
	c0.708,0.751,1.068,1.66,1.068,2.707c0,2.419-1.808,4.303-5.424,5.655c-2.759,1.014-5.56,1.532-8.424,1.532
	c-4.609,0-8.33-1.532-11.174-4.587c-2.844-3.056-4.27-6.893-4.27-11.534c0-4.42,1.479-8.193,4.439-11.342
	c2.949-3.152,6.618-4.726,10.994-4.726c4.07,0,7.474,1.491,10.202,4.471C127.476,142.628,128.85,146.179,128.85,150.292
	L128.85,150.292z M120.013,148.071c-0.043-1.354-0.666-2.579-1.871-3.69c-1.205-1.109-2.484-1.658-3.837-1.658
	c-1.395,0-2.696,0.549-3.901,1.658c-1.205,1.111-1.808,2.337-1.808,3.69H120.013z M158.544,162.14c0,1.291-0.413,2.379-1.236,3.288
	c-0.836,0.899-1.882,1.354-3.161,1.354c-3.087,0-4.631-2.453-4.631-7.347c0-0.941,0.064-2.421,0.19-4.461
	c0.138-2.03,0.202-3.52,0.202-4.461c0-5.191-1.681-7.791-5.032-7.791c-3.352,0-5.021,2.599-5.021,7.791
	c0,0.941,0.053,2.431,0.148,4.461c0.106,2.04,0.159,3.52,0.159,4.461c0,4.894-1.522,7.347-4.566,7.347
	c-1.28,0-2.326-0.455-3.151-1.354c-0.835-0.909-1.247-1.997-1.247-3.288v-21.806c0-1.281,0.413-2.368,1.247-3.246
	c0.825-0.888,1.882-1.331,3.161-1.331c2.114,0,3.583,0.939,4.407,2.811c1.427-2.262,3.953-3.394,7.569-3.394
	c3.351,0,6.015,0.887,7.971,2.653c1.998,1.894,2.992,4.493,2.992,7.802V162.14L158.544,162.14z M186.271,161.201
	c0,1.997-1.297,3.582-3.899,4.747c-2.06,0.939-4.3,1.422-6.564,1.416c-4.451,0-8.066-1.607-10.857-4.809
	c-2.674-3.056-4.017-6.83-4.017-11.312c0-4.494,1.363-8.288,4.101-11.396c2.738-3.118,6.321-4.672,10.772-4.672
	c2.569,0,4.778,0.38,6.618,1.131c2.567,1.015,3.846,2.6,3.846,4.757c0,1.088-0.336,2.05-1.014,2.886
	c-0.676,0.824-1.543,1.247-2.6,1.247c-0.72,0-1.755-0.243-3.108-0.718c-1.352-0.487-2.43-0.72-3.223-0.72
	c-2.104,0-3.743,0.751-4.916,2.251c-1.09,1.354-1.639,3.087-1.639,5.234c0,2.019,0.486,3.732,1.47,5.116
	c1.087,1.618,2.621,2.421,4.576,2.421c0.868,0,2.051-0.254,3.562-0.773c1.513-0.506,2.602-0.77,3.278-0.77
	c0.984,0,1.828,0.422,2.548,1.247C185.914,159.319,186.271,160.216,186.271,161.201L186.271,161.201z M218.397,162.14
	c0,1.291-0.411,2.379-1.237,3.288c-0.834,0.899-1.891,1.354-3.172,1.354c-1.924,0-3.296-0.942-4.121-2.812
	c-1.849,2.263-4.376,3.393-7.579,3.393c-4.1,0-7.462-1.723-10.065-5.148c-2.368-3.129-3.56-6.786-3.56-10.972
	c0-4.186,1.192-7.843,3.56-10.983c2.644-3.394,5.995-5.085,10.065-5.085c3.203,0,5.73,1.131,7.579,3.394
	c0.825-1.873,2.198-2.811,4.121-2.811c1.249,0,2.296,0.454,3.142,1.352c0.844,0.908,1.267,1.976,1.267,3.225V162.14L218.397,162.14z
	 M209.56,151.243c0-2.03-0.486-3.743-1.458-5.128c-1.131-1.574-2.654-2.357-4.566-2.357c-1.956,0-3.478,0.782-4.568,2.357
	c-0.981,1.385-1.468,3.098-1.468,5.128c0,2.019,0.474,3.752,1.414,5.179c1.122,1.574,2.665,2.358,4.621,2.358
	c1.955,0,3.476-0.783,4.566-2.358C209.074,154.995,209.56,153.261,209.56,151.243L209.56,151.243z M240.946,139.751
	c0,1.892-0.919,3.192-2.759,3.9c-1.702,0.572-3.394,1.154-5.084,1.755c-1.852,1.058-2.771,3.024-2.771,5.879v10.855
	c0,1.291-0.423,2.379-1.246,3.288c-0.837,0.899-1.894,1.354-3.172,1.354c-1.288,0-2.347-0.455-3.171-1.354
	c-0.837-0.909-1.248-1.997-1.248-3.288v-21.806c0-1.281,0.411-2.368,1.236-3.246c0.835-0.888,1.894-1.331,3.173-1.331
	c2.113,0,3.581,0.939,4.407,2.811c1.893-2.262,3.923-3.394,6.111-3.394c1.246,0,2.314,0.454,3.203,1.352
	C240.501,137.436,240.946,138.514,240.946,139.751L240.946,139.751z M264.001,140.153c0,1.966-0.772,3.203-2.303,3.732
	c-0.753,0.264-2.329,0.401-4.727,0.401v17.854c0,1.291-0.423,2.379-1.246,3.288c-0.837,0.899-1.894,1.354-3.173,1.354
	c-1.246,0-2.305-0.455-3.151-1.354c-0.844-0.909-1.267-1.997-1.267-3.288v-17.854c-1.819,0-3.139-0.233-3.974-0.686
	c-1.141-0.635-1.704-1.787-1.704-3.447c0-1.659,0.582-2.79,1.755-3.394c0.793-0.444,2.104-0.676,3.923-0.676v-3.785
	c0-4.45,1.468-6.67,4.419-6.67c2.939,0,4.419,2.22,4.419,6.67v3.785c2.399,0,3.974,0.137,4.727,0.401
	C263.23,137.013,264.001,138.241,264.001,140.153L264.001,140.153z M335,134.786c-0.024-2.713-5.038-3.945-18.017-3.945
	c-30.455,0-38.181-1.301-46.45-10.001c3.478,5.224,5.381,15.023,37.571,14.535c33.585-0.517,13.096,8.66,7.135,19.028
	c10.75-9.595,19.729-15.92,19.761-19.577V134.786z M292.205,162.649c-0.001,2.539-2.059,4.597-4.598,4.598
	c-2.548,0-4.608-2.06-4.608-4.598c-0.002-2.544,2.058-4.607,4.602-4.609c0.002,0,0.004,0,0.006,0
	C290.145,158.04,292.205,160.1,292.205,162.649z M313.177,162.649c-0.001,2.539-2.059,4.597-4.598,4.598
	c-2.546,0-4.608-2.06-4.608-4.598c-0.002-2.544,2.058-4.607,4.602-4.609c0.002,0,0.004,0,0.006,0
	C311.118,158.04,313.177,160.1,313.177,162.649z"/>
</svg>
