<svg width="385" height="128" viewBox="0 0 385 128" fill="none" xmlns="http://www.w3.org/2000/svg">
<path d="M385 0H0V128H385V0Z"/>
<path d="M108.011 64H308.767" stroke="#40588D" stroke-width="10" stroke-miterlimit="10"/>
<path d="M326.653 64C326.653 72.448 319.809 79.2747 311.339 79.2747C302.869 79.2747 296.024 72.448 296.024 64C296.024 55.552 302.869 48.7253 311.339 48.7253C319.809 48.7253 326.653 55.552 326.653 64Z" fill="#9DB9EE"/>
<path d="M315.407 58.7093L309.461 64.64L307.108 62.2933C306.124 61.312 304.584 61.312 303.6 62.2933C302.616 63.2747 302.616 64.8107 303.6 65.792L307.707 69.888C308.177 70.3573 308.819 70.6133 309.461 70.6133C310.102 70.6133 310.744 70.3573 311.215 69.888L318.914 62.208C319.898 61.2267 319.898 59.6907 318.914 58.7093C317.931 57.728 316.348 57.728 315.407 58.7093Z" fill="#718FBE"/>
<path d="M164.273 64.512C164.273 70.5707 159.353 75.4773 153.279 75.4773C147.205 75.4773 142.285 70.5707 142.285 64.512C142.285 58.4533 147.205 53.5467 153.279 53.5467C159.353 53.5467 164.273 58.4533 164.273 64.512Z" fill="#EE9D9D"/>
<path d="M270.439 64.512C270.439 70.5707 265.52 75.4773 259.445 75.4773C253.371 75.4773 248.451 70.5707 248.451 64.512C248.451 58.4533 253.371 53.5467 259.445 53.5467C265.52 53.5467 270.439 58.4533 270.439 64.512Z" fill="#EE9D9D"/>
<path d="M206.363 50.816L220.094 64.512L206.363 78.208L192.631 64.512L206.363 50.816Z" fill="#9DB9EE"/>
<path d="M164.273 64.512C164.273 70.5707 159.353 75.4773 153.279 75.4773C147.205 75.4773 142.285 70.5707 142.285 64.512C142.285 63.0187 142.585 61.6107 143.098 60.3307C144.766 64.2987 148.659 67.1147 153.236 67.1147C157.813 67.1147 161.749 64.2987 163.375 60.3307C163.973 61.6107 164.273 63.0187 164.273 64.512Z" fill="#BE7171"/>
<path d="M270.439 64.512C270.439 70.5707 265.52 75.4773 259.445 75.4773C253.371 75.4773 248.451 70.5707 248.451 64.512C248.451 63.0187 248.751 61.6107 249.264 60.3307C250.932 64.2987 254.825 67.1147 259.402 67.1147C263.98 67.1147 267.915 64.2987 269.541 60.3307C270.139 61.6107 270.439 63.0187 270.439 64.512Z" fill="#BE7171"/>
<path d="M220.094 64.512L206.363 78.208L192.631 64.512L196.823 60.3307L206.363 69.8453L215.902 60.3307L220.094 64.512Z" fill="#718FBE"/>
<path d="M58.3467 47.1893H117.081V80.768H58.3467V47.1893Z" fill="#9DB9EE"/>
<path d="M103.568 65.536V62.5067C103.568 60.3307 101.814 58.5387 99.5897 58.5387C97.3652 58.5387 95.6113 60.288 95.6113 62.5067V65.536C95.6113 67.712 97.3652 69.504 99.5897 69.504C101.814 69.504 103.568 67.712 103.568 65.536Z" fill="#718FBE"/>
<path d="M83.7637 62.464V65.4933C83.7637 67.6693 85.5176 69.4613 87.742 69.4613C89.9665 69.4613 91.7203 67.712 91.7203 65.4933V62.464C91.7203 60.288 89.9665 58.496 87.742 58.496C85.5176 58.496 83.7637 60.288 83.7637 62.464Z" fill="#718FBE"/>
<path d="M71.8643 62.464V65.4933C71.8643 67.6693 73.6181 69.4613 75.8426 69.4613C78.067 69.4613 79.8209 67.712 79.8209 65.4933V62.464C79.8209 60.288 78.067 58.496 75.8426 58.496C73.6181 58.496 71.8643 60.288 71.8643 62.464Z" fill="#718FBE"/>
<path d="M112.308 32.7168C112.294 32.6154 112.315 32.5121 112.368 32.4244C112.421 32.3367 112.502 32.27 112.599 32.2356C124.065 28.3057 136.772 27.4486 149.347 29.7573C149.411 29.7576 149.474 29.7719 149.532 29.7994C149.591 29.8269 149.642 29.8669 149.683 29.9165C149.723 29.966 149.753 30.024 149.769 30.0861C149.784 30.1483 149.787 30.2132 149.774 30.2763C149.762 30.3393 149.736 30.3988 149.698 30.4506C149.66 30.5025 149.612 30.5454 149.556 30.5762C149.499 30.607 149.437 30.625 149.372 30.629C149.308 30.6329 149.244 30.6227 149.185 30.599C136.756 28.317 124.204 29.1632 112.882 33.0467C112.828 33.0661 112.77 33.0745 112.712 33.0713C112.655 33.0681 112.598 33.0534 112.546 33.0282C112.494 33.0029 112.448 32.9675 112.41 32.9241C112.372 32.8807 112.343 32.8302 112.325 32.7755C112.317 32.7566 112.312 32.7369 112.308 32.7168Z" fill="#718FBE"/>
<path d="M151.558 33.545C151.544 33.4455 151.565 33.3444 151.616 33.2582L153.374 30.2385C153.415 30.1642 153.477 30.1036 153.552 30.0643C153.628 30.0249 153.713 30.0085 153.798 30.0169C153.883 30.0253 153.963 30.0583 154.029 30.1118C154.096 30.1653 154.145 30.237 154.171 30.318L155.334 33.7129C155.36 33.7825 155.368 33.8578 155.356 33.9312C155.344 34.0046 155.313 34.0737 155.267 34.1316C155.222 34.1895 155.163 34.2353 155.096 34.2647C155.029 34.2941 154.956 34.3063 154.883 34.3C153.41 34.1879 151.963 33.9248 151.919 33.9315C151.85 33.9192 151.785 33.8904 151.729 33.8476C151.674 33.8048 151.629 33.7493 151.6 33.6857C151.578 33.6413 151.564 33.5938 151.558 33.545ZM153.649 31.5123L152.696 33.148C153.114 33.2113 153.67 33.2905 154.282 33.3573L153.649 31.5123Z" fill="#718FBE"/>
<path d="M208.558 32.7168C208.544 32.6154 208.565 32.5121 208.618 32.4244C208.671 32.3367 208.752 32.27 208.849 32.2356C220.315 28.3057 233.022 27.4486 245.597 29.7573C245.661 29.7576 245.725 29.7719 245.783 29.7994C245.841 29.8269 245.892 29.8669 245.933 29.9165C245.974 29.966 246.003 30.024 246.019 30.0861C246.035 30.1483 246.037 30.2132 246.024 30.2763C246.012 30.3393 245.986 30.3988 245.949 30.4506C245.911 30.5025 245.862 30.5454 245.806 30.5762C245.749 30.607 245.687 30.625 245.623 30.629C245.559 30.6329 245.494 30.6227 245.435 30.599C233.007 28.317 220.454 29.1632 209.132 33.0467C209.078 33.0661 209.02 33.0745 208.962 33.0713C208.905 33.0681 208.848 33.0534 208.796 33.0282C208.744 33.0029 208.698 32.9675 208.66 32.9241C208.622 32.8807 208.593 32.8302 208.575 32.7755C208.567 32.7566 208.562 32.7369 208.558 32.7168Z" fill="#718FBE"/>
<path d="M247.808 33.545C247.794 33.4455 247.815 33.3444 247.866 33.2582L249.624 30.2385C249.665 30.1642 249.727 30.1036 249.803 30.0643C249.878 30.0249 249.963 30.0085 250.048 30.0169C250.133 30.0253 250.213 30.0583 250.279 30.1118C250.346 30.1653 250.395 30.237 250.421 30.318L251.584 33.7129C251.61 33.7825 251.617 33.8578 251.605 33.9312C251.594 34.0046 251.563 34.0737 251.516 34.1316C251.472 34.1895 251.413 34.2353 251.346 34.2647C251.279 34.2941 251.206 34.3063 251.133 34.3C249.66 34.1879 248.213 33.9248 248.169 33.9315C248.1 33.9192 248.035 33.8904 247.979 33.8476C247.924 33.8048 247.879 33.7493 247.85 33.6857C247.828 33.6413 247.814 33.5938 247.808 33.545ZM249.899 31.5123L248.946 33.148C249.364 33.2113 249.92 33.2905 250.532 33.3573L249.899 31.5123Z" fill="#718FBE"/>
<path d="M157.653 95.6053C157.638 95.7069 157.659 95.8101 157.712 95.898C157.765 95.9855 157.847 96.0525 157.943 96.0866C169.41 100.017 182.117 100.874 194.692 98.5651C194.756 98.5647 194.819 98.5502 194.877 98.5229C194.936 98.4951 194.987 98.4555 195.028 98.406C195.068 98.356 195.098 98.2984 195.114 98.2362C195.129 98.1739 195.132 98.109 195.119 98.0459C195.107 97.9831 195.081 97.9234 195.043 97.8718C195.005 97.8197 194.957 97.7771 194.901 97.7459C194.844 97.7152 194.782 97.6973 194.717 97.6934C194.653 97.6892 194.589 97.6994 194.53 97.7233C182.101 100.005 169.549 99.159 158.227 95.2755C158.172 95.2563 158.115 95.2478 158.057 95.2512C157.999 95.2542 157.943 95.2687 157.891 95.2943C157.839 95.3195 157.793 95.3549 157.755 95.398C157.717 95.4415 157.688 95.4923 157.67 95.5469C157.662 95.5657 157.656 95.5853 157.653 95.6053Z" fill="#718FBE"/>
<path d="M196.901 94.7772C196.888 94.877 196.909 94.9777 196.96 95.0639L198.717 98.0838C198.759 98.1581 198.821 98.2187 198.896 98.2579C198.972 98.2972 199.057 98.3138 199.142 98.3053C199.226 98.2967 199.307 98.2639 199.373 98.2105C199.439 98.1568 199.488 98.0851 199.515 98.0045L200.677 94.6095C200.703 94.5399 200.711 94.4644 200.699 94.391C200.688 94.3177 200.657 94.2485 200.61 94.1905C200.565 94.1329 200.507 94.0868 200.44 94.0574C200.373 94.0284 200.3 94.016 200.227 94.0224C198.754 94.1342 197.307 94.3974 197.263 94.3906C197.194 94.403 197.129 94.432 197.073 94.4747C197.017 94.5173 196.973 94.5728 196.943 94.6368C196.922 94.6807 196.908 94.7285 196.901 94.7772ZM198.993 96.8098L198.039 95.1744C198.458 95.1108 199.014 95.0319 199.625 94.9649L198.993 96.8098Z" fill="#718FBE"/>
<path d="M262.463 95.6053C262.448 95.7069 262.469 95.8101 262.522 95.898C262.575 95.9855 262.657 96.0525 262.753 96.0866C274.22 100.017 286.926 100.874 299.501 98.5651C299.565 98.5647 299.629 98.5502 299.687 98.5229C299.745 98.4951 299.796 98.4555 299.837 98.406C299.878 98.356 299.907 98.2984 299.923 98.2362C299.939 98.1739 299.941 98.109 299.928 98.0459C299.917 97.9831 299.89 97.9234 299.853 97.8718C299.815 97.8197 299.766 97.7771 299.71 97.7459C299.653 97.7152 299.591 97.6973 299.527 97.6934C299.463 97.6892 299.398 97.6994 299.339 97.7233C286.911 100.005 274.358 99.159 263.036 95.2755C262.982 95.2563 262.924 95.2478 262.866 95.2512C262.809 95.2542 262.753 95.2687 262.701 95.2943C262.649 95.3195 262.602 95.3549 262.564 95.398C262.527 95.4415 262.498 95.4923 262.48 95.5469C262.471 95.5657 262.466 95.5853 262.463 95.6053Z" fill="#718FBE"/>
<path d="M301.703 94.7772C301.69 94.877 301.71 94.9777 301.762 95.0639L303.519 98.0838C303.561 98.1581 303.623 98.2187 303.698 98.2579C303.774 98.2972 303.859 98.3138 303.943 98.3053C304.028 98.2967 304.109 98.2639 304.175 98.2105C304.241 98.1568 304.29 98.0851 304.316 98.0045L305.479 94.6095C305.505 94.5399 305.513 94.4644 305.501 94.391C305.489 94.3177 305.459 94.2485 305.412 94.1905C305.367 94.1329 305.309 94.0868 305.242 94.0574C305.175 94.0284 305.101 94.016 305.029 94.0224C303.555 94.1342 302.109 94.3974 302.065 94.3906C301.996 94.403 301.931 94.432 301.875 94.4747C301.819 94.5173 301.775 94.5728 301.745 94.6368C301.724 94.6807 301.71 94.7285 301.703 94.7772ZM303.795 96.8098L302.841 95.1744C303.26 95.1108 303.816 95.0319 304.427 94.9649L303.795 96.8098Z" fill="#718FBE"/>
<path d="M321.336 34.6386C321.221 34.6386 321.109 34.5937 321.026 34.5135L319.674 33.159C319.604 33.0753 319.567 32.9683 319.572 32.859C319.576 32.7497 319.622 32.646 319.699 32.5684C319.776 32.4908 319.88 32.445 319.989 32.4399C320.098 32.4347 320.206 32.4707 320.29 32.5408L321.645 33.8953C321.728 33.9773 321.773 34.0885 321.773 34.2044C321.773 34.3203 321.728 34.4315 321.645 34.5135C321.562 34.5937 321.452 34.6386 321.336 34.6386Z" fill="#718FBE"/>
<path d="M326.076 39.3795C325.96 39.3782 325.849 39.3322 325.766 39.251L324.414 37.8965C324.343 37.8128 324.307 37.7058 324.311 37.5965C324.316 37.4871 324.361 37.3835 324.438 37.3059C324.515 37.2283 324.618 37.1825 324.728 37.1773C324.838 37.1722 324.945 37.2082 325.029 37.2783L326.385 38.6328C326.467 38.7148 326.513 38.826 326.513 38.9419C326.513 39.0578 326.467 39.1689 326.385 39.251C326.303 39.3328 326.191 39.3789 326.076 39.3795Z" fill="#718FBE"/>
<path d="M319.98 39.3795C319.894 39.3787 319.809 39.3525 319.738 39.3041C319.667 39.2558 319.611 39.1875 319.578 39.1077C319.546 39.028 319.537 38.9404 319.555 38.8559C319.572 38.7714 319.613 38.6938 319.674 38.6328L321.026 37.2783C321.111 37.2153 321.216 37.185 321.322 37.1932C321.427 37.2013 321.526 37.2474 321.6 37.3227C321.674 37.3981 321.719 37.4976 321.725 37.6031C321.731 37.7086 321.699 37.8128 321.635 37.8965L320.279 39.251C320.2 39.3306 320.092 39.3767 319.98 39.3795Z" fill="#718FBE"/>
<path d="M324.73 34.6386C324.673 34.6392 324.616 34.6284 324.563 34.607C324.51 34.5855 324.462 34.5538 324.421 34.5136C324.339 34.4316 324.293 34.3204 324.293 34.2045C324.293 34.0886 324.339 33.9774 324.421 33.8954L325.773 32.5408C325.857 32.465 325.966 32.4242 326.079 32.4268C326.191 32.4294 326.299 32.4753 326.378 32.5548C326.458 32.6344 326.504 32.7416 326.506 32.8541C326.509 32.9667 326.468 33.0759 326.392 33.1591L325.036 34.5136C324.996 34.5535 324.948 34.5851 324.896 34.6066C324.843 34.6281 324.787 34.6389 324.73 34.6386Z" fill="#718FBE"/>
<path d="M335.95 44.6101C335.412 44.6093 334.885 44.4493 334.437 44.1493C333.989 43.8498 333.641 43.4244 333.435 42.9269C333.229 42.4291 333.176 41.8817 333.281 41.3538C333.387 40.8258 333.647 40.341 334.028 39.9605C334.409 39.58 334.895 39.321 335.424 39.2163C335.952 39.1115 336.5 39.1656 336.998 39.3718C337.495 39.578 337.921 39.927 338.221 40.3747C338.52 40.8224 338.68 41.3487 338.68 41.8871C338.679 42.6096 338.391 43.3024 337.879 43.8127C337.367 44.3234 336.674 44.6101 335.95 44.6101ZM335.95 40.0394C335.584 40.0387 335.225 40.1468 334.92 40.35C334.614 40.5531 334.377 40.8422 334.236 41.1805C334.095 41.519 334.058 41.8915 334.13 42.2509C334.201 42.6103 334.377 42.9406 334.637 43.1996C334.896 43.4586 335.227 43.6352 335.586 43.7065C335.946 43.7777 336.319 43.7406 336.658 43.6002C336.997 43.4598 337.286 43.2218 337.489 42.9167C337.693 42.6119 337.801 42.2535 337.8 41.8871C337.799 41.3973 337.604 40.9279 337.257 40.5816C336.911 40.2353 336.441 40.0403 335.95 40.0394Z" fill="#718FBE"/>
<path d="M340.318 53.8347C339.928 53.8355 339.547 53.7207 339.222 53.5044C338.898 53.2885 338.644 52.9813 338.495 52.6217C338.345 52.262 338.306 51.8656 338.381 51.4833C338.457 51.1014 338.644 50.7499 338.92 50.4742C339.195 50.1986 339.546 50.0105 339.929 49.9345C340.311 49.8581 340.708 49.897 341.068 50.0459C341.429 50.1948 341.737 50.4474 341.953 50.7712C342.17 51.095 342.286 51.4761 342.286 51.8656C342.286 52.3874 342.079 52.8875 341.71 53.257C341.341 53.626 340.84 53.8338 340.318 53.8347ZM340.318 50.775C340.101 50.7742 339.889 50.8378 339.709 50.9581C339.528 51.078 339.387 51.2486 339.304 51.4487C339.221 51.6489 339.198 51.869 339.241 52.0815C339.283 52.294 339.387 52.4894 339.54 52.6426C339.694 52.7957 339.889 52.9003 340.102 52.9421C340.315 52.9843 340.535 52.9621 340.735 52.8789C340.935 52.7957 341.106 52.6549 341.227 52.4745C341.347 52.2944 341.411 52.0823 341.41 51.8656C341.41 51.5759 341.295 51.2981 341.09 51.0933C340.886 50.8881 340.608 50.7725 340.318 50.7716V50.775Z" fill="#718FBE"/>
</svg>
